IBM6520 Group Project - Coffee Vending
…
ingredient_summary <- weekly_long %>%
  filter(metric != "sales_n") %>% 
  group_by(metric) %>%
  summarise(
    avg_weekly_usage = mean(value, na.rm = TRUE),
    min_weekly_usage = min(value, na.rm = TRUE),
    max_weekly_usage = max(value, na.rm = TRUE),
    total_usage = sum(value, na.rm = TRUE),
    weeks_count = n()
  ) %>%
  arrange(desc(avg_weekly_usage))

ingredient_summary

# A tsibble: 285 x 7 [7D]
# Key:       metric [5]
   metric week       avg_weekly_usage min_weekly_usage max_weekly_usage
   <chr>  <date>                <dbl>            <dbl>            <dbl>
 1 milkML 2024-10-13            16420            16420            16420
 2 milkML 2024-10-06            15080            15080            15080
 3 milkML 2024-10-20            14860            14860            14860
 4 milkML 2024-11-03            11860            11860            11860
 5 milkML 2025-02-02            11860            11860            11860
 6 milkML 2024-05-26            11340            11340            11340
 7 milkML 2024-10-27            11220            11220            11220
 8 milkML 2025-02-09            11000            11000            11000
 9 milkML 2024-11-10            10900            10900            10900
10 milkML 2025-03-16            10900            10900            10900
# ℹ 275 more rows
# ℹ 2 more variables: total_usage <dbl>, weeks_count <int>
…
